{
  "from": 1,
  "to": 18,
  "currentPage": 1,
  "total": 23,
  "totalPages": 2,
  "queryTime": "0.014",
  "totalTime": "0.029",
  "partial": false,
  "canonicalUrl": "/v1/products(manufacturer=\"apple\"&(categoryPath.id=abcat0204000))?show=categoryPath.id,categoryPath.name,condition,customerReviewAverage,description,image,longDescription,manufacturer,name,onlineAvailability,regularPrice,relatedProducts.sku,salePrice,shortDescription,sku,thumbnailImage,url&sort=condition&pageSize=18&format=json&facet=bestSellingRank,10&apiKey=Xe3NKaQKE4vx25rAVqONSqZz",
  "products": [
    {
      "categoryPath": [
        {
          "id": "cat00000",
          "name": "Best Buy"
        },
        {
          "id": "abcat0200000",
          "name": "Audio"
        },
        {
          "id": "abcat0204000",
          "name": "Headphones"
        },
        {
          "id": "pcmcat144700050004",
          "name": "All Headphones"
        }
      ],
      "condition": "New",
      "customerReviewAverage": 4.7,
      "description": null,
      "image": "https://pisces.bbystatic.com/prescaled/500/500/image2/BestBuy_US/images/products/4900/4900942_sd.jpg",
      "longDescription": "AirPods Pro feature Active Noise Cancellation for immersive sound. Transparency mode for hearing the world around you. They're sweat and water resistant1 and have a customizable fit for all-day comfort.",
      "manufacturer": "Apple",
      "name": "Apple - AirPods Pro (1st generation) with Magsafe Charging Case - White",
      "onlineAvailability": false,
      "regularPrice": 219.99,
      "relatedProducts": [],
      "salePrice": 219.99,
      "shortDescription": null,
      "sku": 4900942,
      "thumbnailImage": "https://pisces.bbystatic.com/prescaled/108/54/image2/BestBuy_US/images/products/4900/4900942_sd.jpg",
      "url": "https://api.bestbuy.com/click/-/4900942/pdp"
    },
    {
      "categoryPath": [
        {
          "id": "cat00000",
          "name": "Best Buy"
        },
        {
          "id": "abcat0200000",
          "name": "Audio"
        },
        {
          "id": "abcat0204000",
          "name": "Headphones"
        },
        {
          "id": "pcmcat144700050004",
          "name": "All Headphones"
        }
      ],
      "condition": "New",
      "customerReviewAverage": 4.8,
      "description": null,
      "image": "https://pisces.bbystatic.com/image2/BestBuy_US/images/products/4900/4900964_sa.jpg",
      "longDescription": "AirPods Pro feature up to 2x more Active Noise Cancellation,&#185; plus Adaptive Transparency, and Personalized Spatial Audio with dynamic head tracking for immersive sound.&#178; Now with multiple ear tips (XS, S, M, L) and up to 6 hours of listening time.&#179;",
      "manufacturer": "Apple",
      "name": "Apple - AirPods Pro (2nd generation) - White",
      "onlineAvailability": true,
      "regularPrice": 249.99,
      "relatedProducts": [],
      "salePrice": 249.99,
      "shortDescription": null,
      "sku": 4900964,
      "thumbnailImage": "https://pisces.bbystatic.com/image2/BestBuy_US/images/products/4900/4900964_s.gif",
      "url": "https://api.bestbuy.com/click/-/4900964/pdp"
    },
    {
      "categoryPath": [
        {
          "id": "cat00000",
          "name": "Best Buy"
        },
        {
          "id": "abcat0200000",
          "name": "Audio"
        },
        {
          "id": "abcat0204000",
          "name": "Headphones"
        },
        {
          "id": "pcmcat144700050004",
          "name": "All Headphones"
        }
      ],
      "condition": "New",
      "customerReviewAverage": 4.7,
      "description": null,
      "image": "https://pisces.bbystatic.com/prescaled/500/500/image2/BestBuy_US/images/products/5577/5577816_sd.jpg",
      "longDescription": "Unlike traditional, circular earbuds, the design of the EarPods is defined by the geometry of the ear. Which makes them more comfortable for more people than any other earbud-style headphones. The speakers inside the EarPods have been engineered to maximize sound output and minimize sound loss, which means you get high-quality audio. The EarPods with Lightning Connector also include a built-in remote that lets you adjust the volume, control the playback of music and video, and answer or end calls with a pinch of the cord.",
      "manufacturer": "Apple",
      "name": "Apple - EarPods with Lightning Connector - White",
      "onlineAvailability": true,
      "regularPrice": 19.99,
      "relatedProducts": [],
      "salePrice": 19.99,
      "shortDescription": "Works with all devices that have a Lightning connector and support iOS 10 or later, including iPod touch, iPad, and iPhone.",
      "sku": 5577816,
      "thumbnailImage": "https://pisces.bbystatic.com/prescaled/108/54/image2/BestBuy_US/images/products/5577/5577816_sd.jpg",
      "url": "https://api.bestbuy.com/click/-/5577816/pdp"
    },
    {
      "categoryPath": [
        {
          "id": "cat00000",
          "name": "Best Buy"
        },
        {
          "id": "abcat0200000",
          "name": "Audio"
        },
        {
          "id": "abcat0204000",
          "name": "Headphones"
        },
        {
          "id": "pcmcat144700050004",
          "name": "All Headphones"
        }
      ],
      "condition": "New",
      "customerReviewAverage": 4.8,
      "description": null,
      "image": "https://pisces.bbystatic.com/prescaled/500/500/image2/BestBuy_US/images/products/6084/6084400_sd.jpg",
      "longDescription": "The new AirPods combine intelligent design with breakthrough technology and crystal-clear sound. Powered by the new Apple H1 headphone chip, AirPods now feature hands-free access to Siri using just your voice. And up to 3 hours of talk time on a single charge.&#185;",
      "manufacturer": "Apple",
      "name": "Apple - AirPods with Charging Case (2nd generation) - White",
      "onlineAvailability": true,
      "regularPrice": 129.99,
      "relatedProducts": [],
      "salePrice": 99.99,
      "shortDescription": null,
      "sku": 6084400,
      "thumbnailImage": "https://pisces.bbystatic.com/prescaled/108/54/image2/BestBuy_US/images/products/6084/6084400_sd.jpg",
      "url": "https://api.bestbuy.com/click/-/6084400/pdp"
    },
    {
      "categoryPath": [
        {
          "id": "cat00000",
          "name": "Best Buy"
        },
        {
          "id": "abcat0200000",
          "name": "Audio"
        },
        {
          "id": "abcat0204000",
          "name": "Headphones"
        },
        {
          "id": "pcmcat313100050031",
          "name": "Headphone Accessories"
        },
        {
          "id": "pcmcat313100050035",
          "name": "Headphone Cases"
        }
      ],
      "condition": "New",
      "customerReviewAverage": 4.7,
      "description": null,
      "image": "https://pisces.bbystatic.com/prescaled/500/500/image2/BestBuy_US/images/products/6296/6296120_sd.jpg",
      "longDescription": "With the new Wireless Charging Case, charging is as simple as placing your AirPods in the case and laying it on a Qi-compatible charging mat. The case works with all generations of AirPods, and when you're away from a charging mat, you can use the Lightning connector to charge.",
      "manufacturer": "Apple",
      "name": "Apple - AirPods Wireless Charging Case - White",
      "onlineAvailability": true,
      "regularPrice": 79.99,
      "relatedProducts": [],
      "salePrice": 79.99,
      "shortDescription": null,
      "sku": 6296120,
      "thumbnailImage": "https://pisces.bbystatic.com/prescaled/108/54/image2/BestBuy_US/images/products/6296/6296120_sd.jpg",
      "url": "https://api.bestbuy.com/click/-/6296120/pdp"
    },
    {
      "categoryPath": [
        {
          "id": "cat00000",
          "name": "Best Buy"
        },
        {
          "id": "abcat0200000",
          "name": "Audio"
        },
        {
          "id": "abcat0204000",
          "name": "Headphones"
        },
        {
          "id": "pcmcat144700050004",
          "name": "All Headphones"
        }
      ],
      "condition": "New",
      "customerReviewAverage": 4.6,
      "description": null,
      "image": "https://pisces.bbystatic.com/prescaled/500/500/image2/BestBuy_US/images/products/6373/6373460_sd.jpg",
      "longDescription": "AirPods Max reimagine over-ear headphones. An Apple-designed dynamic driver provides immersive high-fidelity audio. Every detail, from canopy to cushions, has been designed for an exceptional fit. Active Noise Cancellation blocks outside noise, while Transparency mode lets it in. And spatial audio with dynamic head tracking provides theater-like sound that surrounds you.&#185;",
      "manufacturer": "Apple",
      "name": "Apple - AirPods Max - Space Gray",
      "onlineAvailability": true,
      "regularPrice": 499.99,
      "relatedProducts": [],
      "salePrice": 479.99,
      "shortDescription": null,
      "sku": 6373460,
      "thumbnailImage": "https://pisces.bbystatic.com/prescaled/108/54/image2/BestBuy_US/images/products/6373/6373460_sd.jpg",
      "url": "https://api.bestbuy.com/click/-/6373460/pdp"
    },
    {
      "categoryPath": [
        {
          "id": "cat00000",
          "name": "Best Buy"
        },
        {
          "id": "abcat0200000",
          "name": "Audio"
        },
        {
          "id": "abcat0204000",
          "name": "Headphones"
        },
        {
          "id": "pcmcat144700050004",
          "name": "All Headphones"
        }
      ],
      "condition": "New",
      "customerReviewAverage": 4.6,
      "description": null,
      "image": "https://pisces.bbystatic.com/prescaled/500/500/image2/BestBuy_US/images/products/6373/6373463_sd.jpg",
      "longDescription": "AirPods Max reimagine over-ear headphones. An Apple-designed dynamic driver provides immersive high-fidelity audio. Every detail, from canopy to cushions, has been designed for an exceptional fit. Active Noise Cancellation blocks outside noise, while Transparency mode lets it in. And spatial audio with dynamic head tracking provides theater-like sound that surrounds you.&#185;",
      "manufacturer": "Apple",
      "name": "Apple - AirPods Max - Silver",
      "onlineAvailability": true,
      "regularPrice": 499.99,
      "relatedProducts": [],
      "salePrice": 479.99,
      "shortDescription": null,
      "sku": 6373463,
      "thumbnailImage": "https://pisces.bbystatic.com/prescaled/108/54/image2/BestBuy_US/images/products/6373/6373463_sd.jpg",
      "url": "https://api.bestbuy.com/click/-/6373463/pdp"
    },
    {
      "categoryPath": [
        {
          "id": "cat00000",
          "name": "Best Buy"
        },
        {
          "id": "abcat0200000",
          "name": "Audio"
        },
        {
          "id": "abcat0204000",
          "name": "Headphones"
        },
        {
          "id": "pcmcat144700050004",
          "name": "All Headphones"
        }
      ],
      "condition": "New",
      "customerReviewAverage": 4.6,
      "description": null,
      "image": "https://pisces.bbystatic.com/prescaled/500/500/image2/BestBuy_US/images/products/6376/6376542_sd.jpg",
      "longDescription": "AirPods Max reimagine over-ear headphones. An Apple-designed dynamic driver provides immersive high-fidelity audio. Every detail, from canopy to cushions, has been designed for an exceptional fit. Active Noise Cancellation blocks outside noise, while Transparency mode lets it in. And spatial audio with dynamic head tracking provides theater-like sound that surrounds you.&#185;",
      "manufacturer": "Apple",
      "name": "Apple - AirPods Max - Sky Blue",
      "onlineAvailability": true,
      "regularPrice": 499.99,
      "relatedProducts": [],
      "salePrice": 479.99,
      "shortDescription": null,
      "sku": 6376542,
      "thumbnailImage": "https://pisces.bbystatic.com/prescaled/108/54/image2/BestBuy_US/images/products/6376/6376542_sd.jpg",
      "url": "https://api.bestbuy.com/click/-/6376542/pdp"
    },
    {
      "categoryPath": [
        {
          "id": "cat00000",
          "name": "Best Buy"
        },
        {
          "id": "abcat0200000",
          "name": "Audio"
        },
        {
          "id": "abcat0204000",
          "name": "Headphones"
        },
        {
          "id": "pcmcat144700050004",
          "name": "All Headphones"
        }
      ],
      "condition": "New",
      "customerReviewAverage": 4.6,
      "description": null,
      "image": "https://pisces.bbystatic.com/prescaled/500/500/image2/BestBuy_US/images/products/6376/6376546_sd.jpg",
      "longDescription": "AirPods Max reimagine over-ear headphones. An Apple-designed dynamic driver provides immersive high-fidelity audio. Every detail, from canopy to cushions, has been designed for an exceptional fit. Active Noise Cancellation blocks outside noise, while Transparency mode lets it in. And spatial audio with dynamic head tracking provides theater-like sound that surrounds you.&#185;",
      "manufacturer": "Apple",
      "name": "Apple - AirPods Max - Pink",
      "onlineAvailability": true,
      "regularPrice": 499.99,
      "relatedProducts": [],
      "salePrice": 479.99,
      "shortDescription": null,
      "sku": 6376546,
      "thumbnailImage": "https://pisces.bbystatic.com/prescaled/108/54/image2/BestBuy_US/images/products/6376/6376546_sd.jpg",
      "url": "https://api.bestbuy.com/click/-/6376546/pdp"
    },
    {
      "categoryPath": [
        {
          "id": "cat00000",
          "name": "Best Buy"
        },
        {
          "id": "abcat0200000",
          "name": "Audio"
        },
        {
          "id": "abcat0204000",
          "name": "Headphones"
        },
        {
          "id": "pcmcat144700050004",
          "name": "All Headphones"
        }
      ],
      "condition": "New",
      "customerReviewAverage": 4.6,
      "description": null,
      "image": "https://pisces.bbystatic.com/prescaled/500/500/image2/BestBuy_US/images/products/6376/6376549_sd.jpg",
      "longDescription": "AirPods Max reimagine over-ear headphones. An Apple-designed dynamic driver provides immersive high-fidelity audio. Every detail, from canopy to cushions, has been designed for an exceptional fit. Active Noise Cancellation blocks outside noise, while Transparency mode lets it in. And spatial audio with dynamic head tracking provides theater-like sound that surrounds you.&#185;",
      "manufacturer": "Apple",
      "name": "Apple - AirPods Max - Green",
      "onlineAvailability": true,
      "regularPrice": 499.99,
      "relatedProducts": [],
      "salePrice": 479.99,
      "shortDescription": null,
      "sku": 6376549,
      "thumbnailImage": "https://pisces.bbystatic.com/prescaled/108/54/image2/BestBuy_US/images/products/6376/6376549_sd.jpg",
      "url": "https://api.bestbuy.com/click/-/6376549/pdp"
    },
    {
      "categoryPath": [
        {
          "id": "cat00000",
          "name": "Best Buy"
        },
        {
          "id": "abcat0200000",
          "name": "Audio"
        },
        {
          "id": "abcat0204000",
          "name": "Headphones"
        },
        {
          "id": "pcmcat144700050004",
          "name": "All Headphones"
        }
      ],
      "condition": "New",
      "customerReviewAverage": 4.5,
      "description": null,
      "image": "https://pisces.bbystatic.com/image2/BestBuy_US/images/products/6376/6376551_sa.jpg",
      "longDescription": "AirPods (3rd generation) feature Personalized Spatial Audio that places sound all around you,&#185; as well as longer battery life.&#178; It's sweat and water resistant and delivers an experience that's simply magical.&#179;",
      "manufacturer": "Apple",
      "name": "Apple - AirPods (3rd generation) with Lightning Charging Case - White",
      "onlineAvailability": true,
      "regularPrice": 169.99,
      "relatedProducts": [],
      "salePrice": 149.99,
      "shortDescription": null,
      "sku": 6376551,
      "thumbnailImage": "https://pisces.bbystatic.com/image2/BestBuy_US/images/products/6376/6376551_s.gif",
      "url": "https://api.bestbuy.com/click/-/6376551/pdp"
    },
    {
      "categoryPath": [
        {
          "id": "cat00000",
          "name": "Best Buy"
        },
        {
          "id": "abcat0200000",
          "name": "Audio"
        },
        {
          "id": "abcat0204000",
          "name": "Headphones"
        },
        {
          "id": "pcmcat144700050004",
          "name": "All Headphones"
        }
      ],
      "condition": "New",
      "customerReviewAverage": 4.6,
      "description": null,
      "image": "https://pisces.bbystatic.com/prescaled/500/500/image2/BestBuy_US/images/products/6848/6848136_sa.jpg",
      "longDescription": "Control media playback, adjust the volume and answer and end calls on your Apple&#174; iPod&#174;, iPhone&#174; or iPad&#174; with these Apple EarPods&#8482; MD827LL/A, which feature an in-line remote and mic for ease of use.",
      "manufacturer": "Apple",
      "name": "Apple - EarPods™ with 3.5mm Plug - White",
      "onlineAvailability": true,
      "regularPrice": 19.99,
      "relatedProducts": [],
      "salePrice": 19.99,
      "shortDescription": null,
      "sku": 6848136,
      "thumbnailImage": "https://pisces.bbystatic.com/prescaled/108/54/image2/BestBuy_US/images/products/6848/6848136_sa.jpg",
      "url": "https://api.bestbuy.com/click/-/6848136/pdp"
    },
    {
      "categoryPath": [
        {
          "id": "cat00000",
          "name": "Best Buy"
        },
        {
          "id": "abcat0200000",
          "name": "Audio"
        },
        {
          "id": "abcat0204000",
          "name": "Headphones"
        },
        {
          "id": "pcmcat144700050004",
          "name": "All Headphones"
        }
      ],
      "condition": "Refurbished",
      "customerReviewAverage": 4.4,
      "description": null,
      "image": "https://pisces.bbystatic.com/prescaled/500/500/image2/BestBuy_US/images/products/6344/6344374_sd.jpg",
      "longDescription": "Geek Squad&#174; Certified Refurbished products are thoroughly, painstakingly and lovingly tested, so you can be sure that your device will work right, right away. Learn more about Geek Squad&#174; Certified Refurbished products.The new AirPods - complete with Wireless Charging Case - combine the intelligent design with breakthrough technology and crystal clear sound. Powered by the new Apple H1 headphone chip, AirPods now feature hands-free access to Siri using just your voice and up to three hours of talk time on a single charge.&#185;",
      "manufacturer": "Apple",
      "name": "Apple - Geek Squad Certified Refurbished AirPods with Wireless Charging Case (Latest Model) - White",
      "onlineAvailability": false,
      "regularPrice": 159.99,
      "relatedProducts": [],
      "salePrice": 122.99,
      "shortDescription": null,
      "sku": 6344374,
      "thumbnailImage": "https://pisces.bbystatic.com/prescaled/108/54/image2/BestBuy_US/images/products/6344/6344374_sd.jpg",
      "url": "https://api.bestbuy.com/click/-/6344374/pdp"
    },
    {
      "categoryPath": [
        {
          "id": "cat00000",
          "name": "Best Buy"
        },
        {
          "id": "abcat0200000",
          "name": "Audio"
        },
        {
          "id": "abcat0204000",
          "name": "Headphones"
        },
        {
          "id": "pcmcat144700050004",
          "name": "All Headphones"
        }
      ],
      "condition": "Refurbished",
      "customerReviewAverage": 4.4,
      "description": null,
      "image": "https://pisces.bbystatic.com/prescaled/500/500/image2/BestBuy_US/images/products/6344/6344418_sd.jpg",
      "longDescription": "Geek Squad&#174; Certified Refurbished products are thoroughly, painstakingly and lovingly tested, so you can be sure that your device will work right, right away. Learn more about Geek Squad&#174; Certified Refurbished products.The new AirPods combine the intelligent design with breakthrough technology and crystal clear sound. Powered by the new Apple H1 headphone chip, AirPods now feature hands-free access to Siri using just your voice and up to three hours of talk time on a single charge.&#185;",
      "manufacturer": "Apple",
      "name": "Apple - Geek Squad Certified Refurbished AirPods with Charging Case (Latest Model) - White",
      "onlineAvailability": true,
      "regularPrice": 129.99,
      "relatedProducts": [],
      "salePrice": 89.99,
      "shortDescription": null,
      "sku": 6344418,
      "thumbnailImage": "https://pisces.bbystatic.com/prescaled/108/54/image2/BestBuy_US/images/products/6344/6344418_sd.jpg",
      "url": "https://api.bestbuy.com/click/-/6344418/pdp"
    },
    {
      "categoryPath": [
        {
          "id": "cat00000",
          "name": "Best Buy"
        },
        {
          "id": "abcat0200000",
          "name": "Audio"
        },
        {
          "id": "abcat0204000",
          "name": "Headphones"
        },
        {
          "id": "pcmcat313100050031",
          "name": "Headphone Accessories"
        },
        {
          "id": "pcmcat313100050035",
          "name": "Headphone Cases"
        }
      ],
      "condition": "Refurbished",
      "customerReviewAverage": 4.6,
      "description": null,
      "image": "https://pisces.bbystatic.com/prescaled/500/500/image2/BestBuy_US/images/products/6344/6344422_sd.jpg",
      "longDescription": "Geek Squad&#174; Certified Refurbished products are thoroughly, painstakingly and lovingly tested, so you can be sure that your device will work right, right away. Learn more about Geek Squad&#174; Certified Refurbished products.With this Wireless Charging Case, charging is as simple as placing your AirPods in the case and laying it on a Qi-compatible charging mat. The case works with all generations of AirPods, and when you're away from a charging mat, you can use the Lightning connector to charge.",
      "manufacturer": "Apple",
      "name": "Apple - Geek Squad Certified Refurbished AirPods Wireless Charging Case - White",
      "onlineAvailability": true,
      "regularPrice": 79.99,
      "relatedProducts": [],
      "salePrice": 54.99,
      "shortDescription": null,
      "sku": 6344422,
      "thumbnailImage": "https://pisces.bbystatic.com/prescaled/108/54/image2/BestBuy_US/images/products/6344/6344422_sd.jpg",
      "url": "https://api.bestbuy.com/click/-/6344422/pdp"
    },
    {
      "categoryPath": [
        {
          "id": "cat00000",
          "name": "Best Buy"
        },
        {
          "id": "abcat0200000",
          "name": "Audio"
        },
        {
          "id": "abcat0204000",
          "name": "Headphones"
        },
        {
          "id": "pcmcat144700050004",
          "name": "All Headphones"
        }
      ],
      "condition": "Refurbished",
      "customerReviewAverage": 4.3,
      "description": null,
      "image": "https://pisces.bbystatic.com/prescaled/500/500/image2/BestBuy_US/images/products/6394/6394628_sd.jpg",
      "longDescription": "Geek Squad&#174; Certified Refurbished products are thoroughly, painstakingly and lovingly tested, so you can be sure that your device will work right, right away. Learn more about Geek Squad&#174; Certified Refurbished products.Jam out to your favorite tunes with these refurbished Apple AirPods Pro wireless in-ear earbuds. The rechargeable battery offers up to 4.5 hours of continuous use, while the water-resistant design lets you walk in light rain. These white Apple AirPods Pro wireless in-ear earbuds have three different-size eartips for a secure yet comfortable fit, and active noise cancellation technology blocks out background sound for total immersion in your music.",
      "manufacturer": "Apple",
      "name": "Apple - Geek Squad Certified Refurbished AirPods Pro - White",
      "onlineAvailability": false,
      "regularPrice": 249.99,
      "relatedProducts": [],
      "salePrice": 146.99,
      "shortDescription": null,
      "sku": 6394628,
      "thumbnailImage": "https://pisces.bbystatic.com/prescaled/108/54/image2/BestBuy_US/images/products/6394/6394628_sd.jpg",
      "url": "https://api.bestbuy.com/click/-/6394628/pdp"
    },
    {
      "categoryPath": [
        {
          "id": "cat00000",
          "name": "Best Buy"
        },
        {
          "id": "abcat0200000",
          "name": "Audio"
        },
        {
          "id": "abcat0204000",
          "name": "Headphones"
        },
        {
          "id": "pcmcat144700050004",
          "name": "All Headphones"
        }
      ],
      "condition": "Refurbished",
      "customerReviewAverage": 4.2,
      "description": null,
      "image": "https://pisces.bbystatic.com/prescaled/500/500/image2/BestBuy_US/images/products/6446/6446598_sd.jpg",
      "longDescription": "Geek Squad&#174; Certified Refurbished products are thoroughly, painstakingly and lovingly tested, so you can be sure that your device will work right, right away. Learn more about Geek Squad&#174; Certified Refurbished products.Eliminate ambient noise while listening to music with these silver Apple AirPods Max headphones. Spatial audio technology with adaptive head tracking provides surround sound for an immersive listening experience, while on-head detection offers hands-free operation for added convenience. These rechargeable Apple AirPods Max headphones have cushioned ear muffs for a snug, comfortable fit.",
      "manufacturer": "Apple",
      "name": "Apple - Geek Squad Certified Refurbished AirPods Max - Silver",
      "onlineAvailability": false,
      "regularPrice": 499.99,
      "relatedProducts": [],
      "salePrice": 474.99,
      "shortDescription": null,
      "sku": 6446598,
      "thumbnailImage": "https://pisces.bbystatic.com/prescaled/108/54/image2/BestBuy_US/images/products/6446/6446598_sd.jpg",
      "url": "https://api.bestbuy.com/click/-/6446598/pdp"
    },
    {
      "categoryPath": [
        {
          "id": "cat00000",
          "name": "Best Buy"
        },
        {
          "id": "abcat0200000",
          "name": "Audio"
        },
        {
          "id": "abcat0204000",
          "name": "Headphones"
        },
        {
          "id": "pcmcat144700050004",
          "name": "All Headphones"
        }
      ],
      "condition": "Refurbished",
      "customerReviewAverage": 4.2,
      "description": null,
      "image": "https://pisces.bbystatic.com/prescaled/500/500/image2/BestBuy_US/images/products/6446/6446599_sd.jpg",
      "longDescription": "Geek Squad&#174; Certified Refurbished products are thoroughly, painstakingly and lovingly tested, so you can be sure that your device will work right, right away. Learn more about Geek Squad&#174; Certified Refurbished products.Listen to your favorite playlist with these refurbished sky blue Apple AirPods Max headphones. Noise-cancellation technology delivers clear audio even in noisy backgrounds, while the built-in voice assistant enables hands-free control. These wireless Apple AirPods Max headphones feature spatial audio and dynamic head-tracking for a surround sound experience, and the powerful rechargeable battery offers up to 20 hours of continuous use.",
      "manufacturer": "Apple",
      "name": "Apple - Geek Squad Certified Refurbished AirPods Max - Sky Blue",
      "onlineAvailability": false,
      "regularPrice": 499.99,
      "relatedProducts": [],
      "salePrice": 474.99,
      "shortDescription": null,
      "sku": 6446599,
      "thumbnailImage": "https://pisces.bbystatic.com/prescaled/108/54/image2/BestBuy_US/images/products/6446/6446599_sd.jpg",
      "url": "https://api.bestbuy.com/click/-/6446599/pdp"
    }
  ],
  "facets": {
    "bestSellingRank": {}
  }
}
